{"data":[{"id":1,"persona_id":1,"puesto_id":59,"sector_id":7,"tipo_nomina_id":1,"tipo_contratacion_id":1,"tipo_personal_id":1,"universo_id":19,"nivel_salarial_id":137,"fecha_ingreso":"2006-08-02","sueldo_bruto":"14915.00","sueldo_neto":"13377.45"},{"id":2,"persona_id":2,"puesto_id":354,"sector_id":11,"tipo_nomina_id":1,"tipo_contratacion_id":1,"tipo_personal_id":11,"universo_id":19,"nivel_salarial_id":51,"fecha_ingreso":"2016-06-28","sueldo_bruto":"8115.00","sueldo_neto":"7549.19"},{"id":3,"persona_id":3,"puesto_id":354,"sector_id":10,"tipo_nomina_id":1,"tipo_contratacion_id":1,"tipo_personal_id":1,"universo_id":19,"nivel_salarial_id":51,"fecha_ingreso":"2012-03-16","sueldo_bruto":"7115.00","sueldo_neto":"6875.60"}],"total":246831,"page":1,"per_page":3,"pages":82277}