{"data":[{"id":1,"nombre":"MAYELA MARIANA","apellido_1":"DORANTES","apellido_2":"GUILLEN","sexo_id":1,"edad":41},{"id":2,"nombre":"ENRIQUE","apellido_1":"RAMIREZ","apellido_2":"MARQUEZ","sexo_id":2,"edad":41},{"id":3,"nombre":"CARLOS URIEL","apellido_1":"PEREZ","apellido_2":"ORTEGA","sexo_id":2,"edad":41}],"total":246837,"page":1,"per_page":3,"pages":82279}